<?xml version="1.0" standalone="no"?>
<!DOCTYPE svg PUBLIC "-//W3C//DTD SVG 1.1//EN" "http://www.w3.org/Graphics/SVG/1.1/DTD/svg11.dtd" >
<svg xmlns="http://www.w3.org/2000/svg">
<metadata></metadata>
<defs>
<font id="ralewaythin" horiz-adv-x="880" >
<font-face units-per-em="2048" ascent="1536" descent="-512" />
<missing-glyph horiz-adv-x="665" />
<glyph horiz-adv-x="2048" />
<glyph horiz-adv-x="2048" />
<glyph unicode="&#xd;" horiz-adv-x="682" />
<glyph unicode=" "  horiz-adv-x="665" />
<glyph unicode="&#x09;" horiz-adv-x="665" />
<glyph unicode="&#xa0;" horiz-adv-x="665" />
<glyph unicode="!" horiz-adv-x="274" d="M135 0v172h41v-172h-41zM135 410v1058h41v-1058h-41z" />
<glyph unicode="&#x22;" horiz-adv-x="438" d="M152 1282v172h41v-172h-41zM254 1282v172h41v-172h-41z" />
<glyph unicode="#" horiz-adv-x="1273" d="M51 453v41h242l119 491h-279v41h289l104 428h43l-106 -428h491l105 428h43l-107 -428h232v-41h-242l-119 -491h279v-41h-289l-108 -453h-43l110 453h-491l-109 -453h-43l111 453h-232zM334 494h491l119 491h-491z" />
<glyph unicode="$" horiz-adv-x="1159" d="M43 215l31 27q236 -199 475 -211v676q-215 6 -350.5 95t-135.5 288q0 188 143.5 277t342.5 97v205h41v-205q301 -10 430 -202l-39 -17q-111 166 -391 178v-675q86 -4 155.5 -15.5t142.5 -37t121 -65.5t79.5 -104.5t31.5 -150.5q0 -102 -50 -179t-131 -120t-169 -63.5 t-180 -22.5v-254h-41v256q-281 2 -506 223zM104 1090q14 -190 131 -264t314 -78v675q-123 -4 -216 -34.5t-160 -106t-69 -192.5zM590 31q88 2 171 21.5t156.5 57t117.5 106.5t44 159q0 96 -45 164.5t-121.5 102.5t-154.5 48.5t-168 16.5v-676z" />
<glyph unicode="%" horiz-adv-x="1429" d="M121 1171.5q0 116.5 83 199.5t199.5 83t199.5 -83t83 -199.5t-83 -199.5t-199.5 -83t-199.5 83t-83 199.5zM125 12l1143 1434l32 -25l-1142 -1433zM162 1171q4 -102 73.5 -171.5t167.5 -69.5q100 0 171 72.5t71 168.5q0 100 -72.5 171t-169.5 71q-100 0 -170.5 -73 t-70.5 -169zM739 262q0 117 83 200t200 83t200 -83t83 -200q0 -119 -83 -200.5t-200 -81.5t-200 81.5t-83 200.5zM780 262q4 -102 74 -172t168 -70q100 0 171 72t71 170t-73 170t-169 72q-100 0 -171 -73t-71 -169z" />
<glyph unicode="&#x26;" horiz-adv-x="1368" d="M104 381q0 72 31 135.5t91.5 119.5t107.5 89t119 78q-84 94 -125 144t-74 113.5t-33 119.5q0 139 103.5 216t244.5 77q139 0 233.5 -81t94.5 -212q0 -29 -8 -57.5t-27 -55.5l-35 -49q-16 -23 -48 -48l-51 -41q-19 -15 -57 -40t-54 -34l-54 -32q-39 -23 -45 -26l486 -486 q164 211 163 375h41q-10 -197 -176 -405l285 -281h-62l-249 250q-242 -270 -455 -270q-186 0 -316.5 112.5t-130.5 288.5zM145 381q4 -166 122 -263.5t284 -97.5q201 0 426 259l-494 495l-93 -58q-30 -19 -86 -64.5t-83.5 -80t-51.5 -86t-24 -104.5zM262 1180 q6 -66 48 -137.5t79 -113.5t98 -104l81 48q71 42 105 66t85 67t74.5 86t23.5 88q0 119 -84 185.5t-203 66.5q-129 0 -218 -66.5t-89 -185.5z" />
<glyph unicode="'" horiz-adv-x="317" d="M152 1323v131h41v-131h-41z" />
<glyph unicode="(" horiz-adv-x="407" d="M33 700q0 221 157 576q16 37 34 71.5t32 58.5l27 43l18 30l6 8l33 -25q-66 -94 -113 -202q-154 -346 -153 -560q0 -160 70.5 -355t195.5 -374l-33 -24q-129 184 -201.5 386.5t-72.5 366.5z" />
<glyph unicode=")" horiz-adv-x="405" d="M66 -29q125 178 195.5 374t70.5 355q0 213 -154 560q-33 74 -78 149q-12 27 -34 53l32 25l6 -8l19 -30l27 -43q14 -24 31.5 -58.5t33.5 -71.5q158 -354 158 -576q0 -164 -73 -366.5t-202 -386.5z" />
<glyph unicode="*" horiz-adv-x="436" d="M49 1317l12 39l138 -45v143h41v-143l137 45l12 -39l-137 -45l86 -117l-35 -25l-84 117l-84 -117l-33 25l84 117z" />
<glyph unicode="+" horiz-adv-x="630" d="M8 707v41h287v307h41v-307h287v-41h-287v-308h-41v308h-287z" />
<glyph unicode="," horiz-adv-x="249" d="M82 -27q8 0 16 4l6 7q4 6 5 16v131h41v-131q0 -14 -5 -25q-8 -23 -26 -34q-20 -8 -37 -9v41z" />
<glyph unicode="-" d="M152 535v40h579v-40h-579z" />
<glyph unicode="." horiz-adv-x="317" d="M152 0v131h41v-131h-41z" />
<glyph unicode="/" horiz-adv-x="954" d="M6 0l891 1454h53l-893 -1454h-51z" />
<glyph unicode="0" horiz-adv-x="1179" d="M104 590q0 258 140.5 445.5t345.5 187.5q145 0 259 -95.5t170 -239t56 -298.5q0 -252 -137 -429t-348 -181q-217 4 -351.5 183t-134.5 427zM145 590q8 -240 129 -405t316 -165q201 0 322.5 172.5t121.5 397.5q0 238 -127 415t-317 177q-199 0 -322 -181.5t-123 -410.5z " />
<glyph unicode="1" horiz-adv-x="684" d="M23 926v49q66 0 149.5 48t133.5 92t54 54h41v-1128h261v-41h-592v41h290v1061q-37 -53 -148 -114.5t-189 -61.5z" />
<glyph unicode="2" horiz-adv-x="950" d="M119 26.5q-4 20.5 4 59.5l17 84q9 45 37 97t63.5 100.5t95 94.5t135.5 77q12 6 58 24l67 27q20 8 62 29.5t63.5 37t51.5 42t45.5 52t26.5 61.5t11 75q0 104 -87 183t-245 79q-31 0 -61.5 -5t-56 -13.5t-51 -19.5t-46 -23.5t-39 -25.5t-33 -25.5t-26.5 -25t-19.5 -20.5 t-11.5 -14l-6 -6l-33 24q0 8 43 51.5t138.5 93.5t201.5 50q174 0 273.5 -91t99.5 -212q0 -51 -13.5 -95t-42 -79t-56 -60.5t-73.5 -50t-75 -38t-81 -35t-71 -29.5q-98 -41 -168.5 -108.5t-101.5 -139.5t-43 -123t-12 -88h760v-41h-799q2 6 -2 26.5z" />
<glyph unicode="3" horiz-adv-x="1060" d="M92 -39l39 14q37 -111 145.5 -173t241.5 -62q164 0 278.5 93t114.5 255q0 180 -117.5 280.5t-326.5 100.5v41q84 0 148.5 9t131 37t103.5 86t37 144q0 152 -110.5 252.5t-262.5 100.5q-121 0 -221 -61.5t-141 -170.5l-37 15q43 119 155.5 188.5t243.5 69.5 q170 0 292 -115t122 -279q0 -121 -72 -198.5t-192 -102.5q129 -20 208.5 -137t79.5 -260q0 -182 -129 -285.5t-305 -103.5q-145 0 -256 65q-127 72 -170 197z" />
<glyph unicode="4" horiz-adv-x="1038" d="M2 147v35l760 987h29v-981h180v-41h-180v-407h-41v407h-748zM59 188h691v906z" />
<glyph unicode="5" horiz-adv-x="1077" d="M92 -6h45q55 -117 167 -187.5t247 -70.5q186 0 313 122t127 310q0 180 -124 299t-306 119q-117 0 -221 -52.5t-172 -148.5h-49l160 784h690v-41h-656l-133 -665q152 164 381 164q127 0 234.5 -57.5t169.5 -153.5q68 -111 67 -248q0 -209 -141 -341t-340 -132 q-152 0 -275 82t-184 217z" />
<glyph unicode="6" horiz-adv-x="1218" d="M113 649q0 133 23.5 264t75.5 261.5t154.5 210t241.5 79.5h15q147 0 262.5 -84t158.5 -219l-38 -14q-43 129 -148.5 202.5t-234.5 73.5h-15q-106 0 -190 -56t-132 -139t-80 -192.5t-42 -203t-10 -181.5q57 145 186 233.5t283 88.5q209 0 353 -147.5t148 -350.5 q-12 -205 -144 -344t-325 -151h-32q-197 0 -340.5 135t-159.5 321q0 2 -1 13.5t-2 31t-3 44t-3 57t-1 67.5zM162 475q0 -188 139 -321.5t322 -133.5q193 8 326.5 138.5t133.5 316.5q0 190 -138 323.5t-322 133.5q-190 0 -325.5 -136.5t-135.5 -320.5z" />
<glyph unicode="7" horiz-adv-x="962" d="M6 1153v41h942l-745 -1454h-47l725 1413h-875z" />
<glyph unicode="8" horiz-adv-x="1177" d="M102 389q0 143 100.5 248.5t235.5 142.5q-123 43 -202.5 128t-79.5 198q0 158 136 253t296 95q164 0 299 -97t135 -251q0 -117 -84 -202t-201 -124q145 -41 241.5 -147.5t96.5 -243.5q-12 -180 -145 -288.5t-309 -120.5h-33q-188 0 -337 116.5t-149 292.5zM143 389 q0 -166 139.5 -267.5t305.5 -101.5q172 0 309 103.5t137 265.5q0 166 -140 268.5t-306 102.5q-170 0 -307.5 -105.5t-137.5 -265.5zM197 1106q8 -141 126.5 -223t264 -82t269.5 85t124 220q0 139 -125 223t-268 84q-147 0 -269 -86t-122 -221z" />
<glyph unicode="9" horiz-adv-x="1218" d="M94 674q12 205 144.5 344t324.5 151h33q197 0 340 -135t160 -321q0 -2 1 -13.5t3 -31t3 -44t2 -57t1 -67.5q0 -133 -23.5 -264.5t-76 -261.5t-154.5 -209.5t-242 -79.5h-14q-147 0 -263 84t-159 219l39 14q43 -129 148.5 -202.5t234.5 -73.5h14q106 0 190.5 56t132.5 139 t79.5 192.5t42 203t10.5 181.5q-57 -145 -186 -233.5t-283 -88.5q-209 0 -353.5 147.5t-148.5 350.5zM135 674q0 -190 138.5 -323.5t322.5 -133.5q190 0 325.5 136t135.5 321q0 188 -139.5 321t-321.5 133q-193 -8 -327 -138t-134 -316z" />
<glyph unicode=":" horiz-adv-x="165" d="M80 0v131h41v-131h-41zM80 928v131h41v-131h-41z" />
<glyph unicode=";" horiz-adv-x="165" d="M20 -27q27 4 27 27v131h41v-131q0 -31 -19.5 -49.5t-48.5 -18.5v41zM47 928v131h41v-131h-41z" />
<glyph unicode="&#x3c;" horiz-adv-x="964" d="M4 512v37l854 510v-45l-795 -484l795 -485v-45z" />
<glyph unicode="=" horiz-adv-x="901" d="M152 473v41h600v-41h-600zM152 616v41h600v-41h-600z" />
<glyph unicode="&#x3e;" horiz-adv-x="970" d="M113 0v45l794 485l-794 484v45l854 -510v-37z" />
<glyph unicode="?" horiz-adv-x="868" d="M31 1208q53 121 170.5 193t255.5 72q158 0 270.5 -101.5t112.5 -279.5q0 -203 -183 -312q-29 -16 -84 -43.5t-83.5 -45t-62.5 -50.5t-48 -83t-14 -120v-71h-41q0 152 18 206q37 109 156 172l59 30q43 22 58 31l50 31q34 22 46 35l34 41q23 27 31 53.5t15.5 64.5t7.5 83 q-4 139 -99.5 228.5t-242.5 89.5q-123 0 -230.5 -66t-158.5 -174zM324 0v172h41v-172h-41z" />
<glyph unicode="@" horiz-adv-x="1683" d="M104 469q0 219 105.5 396t275.5 273.5t363 96.5q236 0 427 -148.5t265 -375.5q37 -117 37 -240q0 -504 -297 -504q-82 0 -110.5 56.5t-32.5 148.5q-133 -147 -357 -147q-113 0 -198.5 69.5t-85.5 198.5q0 125 108.5 187.5t251.5 62.5q154 0 289 -47q0 186 -60.5 287.5 t-212.5 101.5q-135 0 -286 -107l-25 33q168 115 311 115q313 0 314 -404q0 -57 -4 -158.5t-4 -162.5q0 -92 19.5 -142.5t82.5 -50.5q74 0 127 44t79.5 118t38 147.5t11.5 153.5q0 291 -203 507t-485 216q-281 0 -492 -208t-211 -517q0 -301 206 -514t495 -213q168 0 311 78 l21 -37q-158 -82 -332 -82q-305 0 -523.5 224.5t-218.5 543.5zM537 293q0 -106 74.5 -166.5t168.5 -60.5q119 0 213 47q92 47 122 104t30 139q0 14 -1 47t-1 50l-99 24q-98 25 -188 25q-131 0 -222 -50t-97 -159z" />
<glyph unicode="A" horiz-adv-x="1406" d="M51 0l635 1454h37l633 -1454h-45l-228 520h-759l-228 -520h-45zM340 561h725l-360 834z" />
<glyph unicode="B" horiz-adv-x="1298" d="M152 0v1454h643q147 0 239 -112.5t92 -258.5q0 -111 -57 -203t-151 -135q123 -37 196.5 -139t73.5 -229q-6 -154 -110.5 -265.5t-252.5 -111.5h-673zM193 41h632q131 0 226.5 103.5t95.5 232.5q0 133 -89 234.5t-218 101.5h-647v-672zM193 754h589q129 0 216 101t87 228 q0 133 -81.5 230.5t-208.5 99.5h-602v-659z" />
<glyph unicode="C" horiz-adv-x="1435" d="M98 725q0 293 189.5 515t472.5 222q395 0 555 -317l-39 -12q-155 288 -514 288h-2q-184 0 -328.5 -103.5t-218.5 -261t-74 -331.5q0 -276 189.5 -486t455.5 -210q143 0 311.5 91t215.5 216l39 -10q-37 -100 -134.5 -180t-211 -119t-220.5 -39q-195 0 -354.5 109.5 t-245.5 278.5t-86 349z" />
<glyph unicode="D" horiz-adv-x="1406" d="M154 0v1454h467q330 0 506 -203.5t176 -521.5q0 -332 -185.5 -530.5t-496.5 -198.5h-467zM195 41h426q305 0 469.5 188.5t171.5 499.5q-4 313 -171 498.5t-470 185.5h-426v-1372z" />
<glyph unicode="E" horiz-adv-x="1107" d="M154 0v1454h936v-41h-895v-649h784v-41h-784v-682h913v-41h-954z" />
<glyph unicode="F" horiz-adv-x="1089" d="M154 0v1454h936v-41h-895v-647h784v-41h-784v-725h-41z" />
<glyph unicode="G" horiz-adv-x="1474" d="M100 727q0 293 189.5 515t472.5 222q397 0 555 -317l-39 -12q-155 288 -514 288h-2q-184 0 -328.5 -103t-218.5 -261t-74 -332q0 -276 189.5 -486t455.5 -210q156 0 322 87t203 218v315h-342v41h383v-692h-41v248q-219 -258 -525 -258q-195 0 -354.5 109.5t-245.5 278.5 t-86 349z" />
<glyph unicode="H" horiz-adv-x="1400" d="M156 0v1454h41v-690h1009v690h41v-1454h-41v723h-1009v-723h-41z" />
<glyph unicode="I" horiz-adv-x="325" d="M156 0v1452h41v-1452h-41z" />
<glyph unicode="J" horiz-adv-x="884" d="M0 68l23 32q119 -82 292 -82q102 0 174 33t114 86t64.5 146.5t30 189.5t7.5 242v737h40v-737q0 -147 -8 -247.5t-33.5 -201t-71.5 -159t-125 -94.5t-192 -36q-184 1 -315 91z" />
<glyph unicode="K" horiz-adv-x="1370" d="M158 0v1452h41v-942l1015 944h60l-699 -651l637 -803h-53l-614 774l-346 -321v-453h-41z" />
<glyph unicode="L" horiz-adv-x="1112" d="M158 0v1454h41v-1413h913v-41h-954z" />
<glyph unicode="M" horiz-adv-x="1720" d="M158 0v1454h32l670 -1118l670 1118h33v-1454h-41v1364l-645 -1077h-33l-645 1077v-1364h-41z" />
<glyph unicode="N" horiz-adv-x="1503" d="M160 0v1454h30l1113 -1395v1393h40v-1452h-47l-1095 1374v-1374h-41z" />
<glyph unicode="O" horiz-adv-x="1570" d="M109 727q0 295 197.5 516t479.5 221q289 0 482.5 -226t193.5 -511q0 -295 -196.5 -514t-479.5 -223q-195 6 -352.5 112.5t-241 272.5t-83.5 352zM150 727q8 -281 188 -488.5t448 -207.5q272 0 453.5 213t181.5 483q0 180 -82 340t-229 258t-324 98q-182 0 -330.5 -102 t-227 -261t-78.5 -333z" />
<glyph unicode="P" horiz-adv-x="1181" d="M162 0v1454h592q172 0 290.5 -135t118.5 -305q0 -176 -111.5 -309.5t-283.5 -133.5h-565v-571h-41zM203 612h565q158 0 256 122t98 279.5t-108.5 278.5t-259.5 121h-551v-801z" />
<glyph unicode="Q" horiz-adv-x="1579" d="M109 727q0 295 197.5 516t479.5 221q289 0 482.5 -226t193.5 -511q0 -305 -221 -545l145 -182h-51l-123 154q-186 -164 -426 -164q-195 6 -352.5 112.5t-241 272.5t-83.5 352zM150 727q0 -276 185 -486t451 -210q225 0 402 155l-156 195h51l134 -168q204 226 204 511 q0 183 -82 343t-229 258t-324 98q-182 0 -330.5 -102t-227 -261t-78.5 -333z" />
<glyph unicode="R" horiz-adv-x="1286" d="M162 0v1454h592q172 0 290.5 -135t118.5 -305q0 -172 -104.5 -301t-265.5 -142l368 -571h-49l-369 571h-540v-571h-41zM203 612h565q158 0 256 121t98 281q0 158 -108.5 278.5t-259.5 120.5h-551v-801z" />
<glyph unicode="S" horiz-adv-x="1277" d="M111 215l30 27q98 -102 233.5 -156.5t276.5 -54.5q121 0 228.5 31.5t187.5 112.5t80 200q0 98 -47 167.5t-127 103.5t-160 47.5t-172 13.5q-104 0 -191.5 19t-161 61t-115.5 119t-42 184q0 100 45 175.5t121 117.5t161 61.5t177 19.5q172 0 275.5 -49t176.5 -153l-38 -17 q-119 178 -414 178q-193 0 -326 -80.5t-137 -252.5q0 -342 469 -342q106 0 197.5 -17.5t173.5 -57.5t129 -116t47 -182q0 -102 -50.5 -180t-133 -121t-172 -63.5t-181.5 -20.5q-315 0 -540 225z" />
<glyph unicode="T" horiz-adv-x="1171" d="M8 1413v41h1155v-41h-557v-1413h-41v1413h-557z" />
<glyph unicode="U" horiz-adv-x="1472" d="M141 707v747h41v-747q0 -111 15.5 -208.5t55.5 -188.5t101.5 -156.5t159.5 -104.5t223 -39q127 0 225.5 41t159 106.5t99.5 159t54 187.5t15 203v747h41v-747q0 -121 -18.5 -225.5t-62.5 -200t-110.5 -164t-170 -108.5t-232.5 -40q-133 0 -238.5 42t-171 112t-108.5 167 t-60.5 199.5t-17.5 217.5z" />
<glyph unicode="V" horiz-adv-x="1419" d="M55 1454h43l613 -1403l610 1403h45l-633 -1454h-45z" />
<glyph unicode="W" horiz-adv-x="2224" d="M88 1454h45l610 -1403l347 797l-261 594h45l236 -545l238 545h45l-260 -594l348 -797l610 1403h45l-633 -1454h-45l-346 797l-346 -797h-45z" />
<glyph unicode="X" horiz-adv-x="1472" d="M123 1454h53l561 -704l561 704h52l-588 -737l571 -717h-51l-545 684l-544 -684h-54l572 717z" />
<glyph unicode="Y" horiz-adv-x="1304" d="M43 1454h47l561 -844l563 844h48l-590 -891v-563h-41v567z" />
<glyph unicode="Z" horiz-adv-x="1202" d="M20 0v41l1110 1372h-1099v41h1151v-41l-1110 -1372h1102v-41h-1154z" />
<glyph unicode="[" horiz-adv-x="309" d="M166 -82v1598h143v-41h-102v-1516h102v-41h-143z" />
<glyph unicode="\" horiz-adv-x="954" d="M4 1454h53l891 -1454h-51z" />
<glyph unicode="]" horiz-adv-x="301" d="M0 -41h102v1516h-102v41h143v-1598h-143v41z" />
<glyph unicode="^" horiz-adv-x="962" d="M57 621l406 833h37l403 -833h-47l-375 774l-381 -774h-43z" />
<glyph unicode="_" horiz-adv-x="1134" d="M166 0h805v-41h-805v41z" />
<glyph unicode="`" horiz-adv-x="251" d="M10 1442h68l133 -191l-33 -24z" />
<glyph unicode="a" horiz-adv-x="1122" d="M123 305q0 106 73.5 179t168 98.5t196.5 25.5q197 0 357 -59v121q0 164 -95.5 266t-253 102t-344.5 -131l-24 33q203 139 368 139q186 0 287.5 -114.5t101.5 -294.5v-588q6 -41 33 -41v-41q-35 2 -54 25.5t-19 56.5v98q-78 -100 -199 -150t-252 -50q-145 0 -244.5 94 t-99.5 231zM164 305q0 -125 90 -205t213 -80q127 0 243.5 48.5t176.5 140.5q31 45 31 84v211q-164 63 -357 63q-156 0 -276.5 -63.5t-120.5 -198.5z" />
<glyph unicode="b" horiz-adv-x="1167" d="M166 0v1495h41v-680q186 264 434 264q221 0 357.5 -169t136.5 -382q-6 -221 -153.5 -384.5t-358.5 -163.5q-123 0 -237 68.5t-179 172.5v-221h-41zM207 346q0 -123 141 -224.5t275 -101.5q199 0 335 156t136 352q0 203 -129 356.5t-324 153.5q-143 0 -256 -88t-178 -221 v-383z" />
<glyph unicode="c" horiz-adv-x="1120" d="M92 528q0 221 140.5 386t353.5 165q297 0 415 -237l-38 -15q-115 211 -377 211q-203 0 -328 -156.5t-125 -353.5q0 -203 138.5 -355.5t332.5 -152.5q111 0 229.5 65t143.5 159l41 -13q-39 -117 -162 -184t-252 -67q-215 0 -363.5 167.5t-148.5 380.5z" />
<glyph unicode="d" horiz-adv-x="1183" d="M35 528q0 223 142 387t351 164q250 0 435 -264v680h41v-1413q4 -41 32 -41v-41q-35 2 -54 25.5t-19 56.5v139q-68 -106 -182.5 -173.5t-233.5 -67.5q-215 0 -363.5 167.5t-148.5 380.5zM76 528q0 -203 138 -355.5t333 -152.5q84 0 179 44.5t165 122t72 159.5v383 q-43 127 -173.5 218t-261.5 91q-199 0 -325.5 -154.5t-126.5 -355.5z" />
<glyph unicode="e" horiz-adv-x="1187" d="M92 528q6 223 142.5 387t351.5 164q227 0 371.5 -161.5t148.5 -387.5v-22h-973q14 -199 147.5 -343.5t323.5 -144.5q121 0 228.5 60.5t154.5 163.5l39 -11q-47 -119 -170 -186t-252 -67q-215 0 -363.5 167.5t-148.5 380.5zM133 549h930q-14 211 -145.5 350t-331.5 139 q-133 0 -237.5 -74.5t-157 -184t-58.5 -230.5z" />
<glyph unicode="f" horiz-adv-x="690" d="M41 897v41h154v168q0 102 22.5 189t87 154t160.5 67q92 0 158 -33q47 -25 47 -37l-33 -25q-55 53 -172 54q-70 0 -118 -38t-70.5 -98.5t-31.5 -117t-9 -115.5v-168h317v-41h-317v-897h-41v897h-154z" />
<glyph unicode="g" horiz-adv-x="1232" d="M111 528q0 221 140 386t353 165q248 0 434 -264v244h41v-1104q0 -199 -136 -305.5t-333 -106.5q-328 0 -460 254l38 13q61 -115 173 -170.5t249 -55.5q184 0 306 97.5t122 273.5v266q-68 -106 -182.5 -173.5t-232.5 -67.5q-215 0 -363.5 167.5t-148.5 380.5zM152 528 q0 -203 138 -355.5t333 -152.5q113 0 217 63.5t164 160.5q35 57 34 102v383q-51 133 -174 221t-260 88q-203 0 -327.5 -156.5t-124.5 -353.5z" />
<glyph unicode="h" horiz-adv-x="1091" d="M164 0v1499h41v-711q68 133 189.5 212t254.5 79q340 0 340 -487v-592h-41v592q0 446 -299 446q-154 0 -279.5 -110.5t-164.5 -255.5v-672h-41z" />
<glyph unicode="i" horiz-adv-x="266" d="M123 0v1059h41v-1059h-41zM123 1337v131h41v-131h-41z" />
<glyph unicode="j" horiz-adv-x="497" d="M-82 -279l33 25q61 -53 170 -53q88 0 160.5 68.5t72.5 164.5v1133h41v-1133q0 -115 -86 -194.5t-186 -79.5q-139 3 -205 69zM354 1337v131h41v-131h-41z" />
<glyph unicode="k" horiz-adv-x="1005" d="M164 0v1495h41v-1094l725 658h55l-461 -422l471 -637h-49l-452 608l-289 -262v-346h-41z" />
<glyph unicode="l" horiz-adv-x="491" d="M184 158v1337h41v-1337q0 -49 34 -89t89 -40q16 0 33.5 2t33 4t29 5t21.5 5l8 2l19 -39q-2 -2 -21.5 -6t-55.5 -8t-69 -4q-74 0 -118 49t-44 119z" />
<glyph unicode="m" horiz-adv-x="1855" d="M164 0v1063h41v-275q68 137 176 214t237 77q141 0 225.5 -89t96.5 -220q158 309 422 309q86 0 148.5 -30.5t96 -76.5t54 -116t26 -129t5.5 -135v-592h-41v592q0 94 -10.5 164.5t-38 139.5t-89 105.5t-151.5 36.5q-195 0 -324 -174q-23 -31 -41 -66.5t-27 -61t-16 -46.5 l-6 -20v-670h-41v592q0 219 -62.5 332.5t-226.5 113.5q-152 0 -262 -107.5t-151 -258.5v-672h-41z" />
<glyph unicode="n" horiz-adv-x="1142" d="M166 0v1063h41v-275q66 129 197 210t270 81q86 0 147.5 -31.5t94 -76.5t50 -117t21.5 -127t4 -135v-592h-41v592q0 78 -4 134t-21.5 118.5t-46 101.5t-81 65.5t-123.5 26.5q-158 0 -292 -109.5t-175 -256.5v-672h-41z" />
<glyph unicode="o" horiz-adv-x="1236" d="M113 528q0 223 148.5 387t356.5 164q219 0 362.5 -170t143.5 -381q0 -221 -147.5 -382.5t-358.5 -165.5q-217 4 -361 168.5t-144 379.5zM154 528q8 -207 138 -357.5t326 -150.5q201 0 333 158t132 350q0 203 -136 356.5t-329 153.5q-201 0 -332.5 -158.5t-131.5 -351.5z " />
<glyph unicode="p" horiz-adv-x="1163" d="M164 -436v1499h41v-225q68 106 182.5 173.5t233.5 67.5q217 0 364.5 -169t147.5 -382q-14 -229 -147.5 -388.5t-346.5 -159.5q-133 0 -246.5 73.5t-187.5 190.5v-680h-41zM205 330q59 -133 178 -221.5t256 -88.5q199 0 323.5 154t129.5 354q0 203 -138.5 356.5 t-332.5 153.5q-131 0 -273.5 -102t-142.5 -223v-383z" />
<glyph unicode="q" horiz-adv-x="1206" d="M51 528q0 219 150.5 385t361.5 166q123 0 236.5 -68.5t179.5 -172.5v225h41v-1417q6 -41 33 -41v-41q-35 2 -54.5 25.5t-19.5 56.5v598q-182 -264 -434 -264q-215 0 -354.5 165.5t-139.5 382.5zM92 528q0 -205 130 -356.5t323 -151.5q141 0 253.5 88.5t180.5 221.5v383 q0 45 -35 102q-61 98 -165.5 160.5t-215.5 62.5q-201 0 -336 -156.5t-135 -353.5z" />
<glyph unicode="r" horiz-adv-x="649" d="M154 0v1063h41v-275q141 274 413 275v-41q-158 -6 -265 -102.5t-148 -247.5v-672h-41z" />
<glyph unicode="s" horiz-adv-x="1015" d="M113 147l30 27q166 -154 373 -154q141 0 251 62.5t110 187.5q0 70 -35 120t-93.5 73.5t-117 34t-123.5 10.5q-168 0 -274.5 68.5t-106.5 220.5q0 98 60.5 164.5t141.5 92t175 25.5q129 0 206.5 -37.5t131.5 -115.5l-37 -17q-63 129 -301 129q-137 0 -236.5 -59 t-99.5 -182q0 -92 54 -150.5t125 -78t161 -19.5q78 0 146.5 -14.5t130 -44t97.5 -86t36 -134.5q0 -76 -38 -135t-98.5 -92t-128 -48t-137.5 -15h-3q-233 0 -400 167z" />
<glyph unicode="t" horiz-adv-x="593" d="M41 1022v41h154v371h41v-371h256v-41h-256v-868q4 -57 45 -90t98 -33q70 0 172 51l22 -33q-4 -4 -25.5 -16.5t-69.5 -27.5t-99 -15q-76 0 -130 46t-54 118v868h-154z" />
<glyph unicode="u" horiz-adv-x="1165" d="M154 467v596h41v-596q0 -98 13 -172t45 -139.5t94.5 -100.5t154.5 -35q158 0 287 110t169 257v676h41v-981q4 -41 33 -41v-41q-35 2 -54.5 25.5t-19.5 56.5v188q-66 -129 -191.5 -209.5t-264.5 -80.5q-86 0 -150.5 28.5t-101.5 73.5t-59.5 112.5t-29.5 131t-7 141.5z" />
<glyph unicode="v" horiz-adv-x="1064" d="M61 1063h45l437 -1004l436 1004h45l-463 -1063h-37z" />
<glyph unicode="w" horiz-adv-x="1646" d="M61 1063h45l439 -1004l256 588l-178 412h43l157 -359l158 359h43l-178 -412l256 -588l438 1004h45l-465 -1063h-37l-260 596l-260 -596h-37z" />
<glyph unicode="x" horiz-adv-x="1110" d="M102 1063h54l399 -500l399 500h54l-426 -535l422 -528h-54l-395 496l-395 -496h-54l422 528z" />
<glyph unicode="y" horiz-adv-x="1064" d="M31 1063h45l469 -1012l444 1012h45l-633 -1444l-14 -25q-31 -51 -137 -51v41q74 0 96 23q12 14 178 393z" />
<glyph unicode="z" horiz-adv-x="964" d="M41 0v41l811 981h-801v41h852v-41l-809 -981h801v-41h-854z" />
<glyph unicode="{" horiz-adv-x="268" d="M43 719v41q61 0 61 92v602q0 33 15.5 47.5t32.5 14.5h106v-41h-108l-3 -5q-2 -4 -2 -16v-602q0 -76 -43 -115q43 -39 43 -114v-625q0 -6 2 -12v-6l111 -3v-40h-106q-47 0 -48 61v625q0 88 -61 96z" />
<glyph unicode="|" horiz-adv-x="344" d="M166 -266v1853h41v-1853h-41z" />
<glyph unicode="}" horiz-adv-x="268" d="M12 -23l111 3v6q2 6 2 12v625q0 78 43 114q-43 39 -43 115v602q0 12 -2 16l-2 5h-109v41h107q8 0 17 -4.5t19.5 -18.5t10.5 -39v-602q0 -92 61 -92v-41q-61 -8 -61 -96v-625q0 -61 -47 -61h-107v40z" />
<glyph unicode="~" horiz-adv-x="909" d="M131 514v2q0 10 15.5 45t59.5 77t103 42q49 0 147.5 -62.5t155.5 -62.5q41 0 76 26.5t49.5 51t14.5 33.5l41 -2q-2 -6 -6.5 -16.5t-19.5 -36t-33.5 -45t-51.5 -36t-70 -16.5q-76 0 -174 62.5t-129 62.5q-43 0 -76.5 -30.5t-47 -58.5t-13.5 -34z" />
<glyph unicode="&#xa2;" horiz-adv-x="1007" d="M55 528q0 213 134.5 377t336.5 174v242h41v-242q283 -8 398 -237l-39 -15q-111 201 -359 211v-1018q111 0 229.5 65t143.5 159l41 -13q-39 -117 -162 -184t-252 -67v-226h-41v228q-201 16 -336 179.5t-135 366.5zM96 528.5q0 -190.5 125 -340t305 -165.5v1015 q-195 -10 -312.5 -164.5t-117.5 -345z" />
<glyph unicode="&#xa3;" horiz-adv-x="894" d="M90 709v41h219q-10 10 -42 48l-44 52q-12 14 -37.5 47t-37.5 54l-25 51q-14 30 -20.5 59t-6.5 59q0 139 106.5 241.5t258.5 102.5q113 0 217 -59t172 -156l-35 -24q-61 90 -156.5 144t-197.5 54q-135 0 -229.5 -90t-94.5 -213q0 -49 24.5 -102t46 -84t78.5 -96l74 -88 h357v-41h-324q72 -100 72 -256q0 -115 -55.5 -212.5t-151.5 -203.5q72 14 129 14q59 0 138 -20.5t116 -20.5q82 0 199 33l12 -39q-115 -35 -211 -35q-47 0 -129 20.5t-125 20.5q-82 0 -186 -28l-21 34q229 221 244 422q0 164 -82 271h-252z" />
<glyph unicode="&#xa5;" horiz-adv-x="1308" d="M45 1454h47l561 -844l564 844h47l-500 -756h190v-41h-217l-63 -94v-49h280v-41h-280v-473h-41v473h-279v41h279v53l-60 90h-219v41h193z" />
<glyph unicode="&#xa9;" horiz-adv-x="1708" d="M115 727q0 317 211 527t528 210t528 -210t211 -527t-211 -529t-528 -212t-528 212t-211 529zM156 727q0 -301 198.5 -500.5t499.5 -199.5q299 0 498.5 194.5t199.5 505.5q0 299 -198.5 497.5t-499.5 198.5q-299 0 -498.5 -198.5t-199.5 -497.5zM420 731 q6 182 115.5 325.5t308.5 143.5q45 0 87 -7t72.5 -18.5t58.5 -25.5t47 -31.5t34.5 -34t26 -32t16.5 -26.5t10 -19l4 -9l-39 -14l-2 2q0 2 -2 6q-90 168 -313 168q-178 0 -280.5 -132t-102.5 -296q0 -195 127 -312.5t272 -117.5q90 0 169 40t122 95q23 29 31 51l39 -10 q-20 -70 -122 -143.5t-239 -73.5q-164 0 -302 130t-138 341z" />
<glyph unicode="&#xad;" d="M152 535v40h579v-40h-579z" />
<glyph unicode="&#xb4;" horiz-adv-x="253" d="M43 1251l131 191h70l-168 -215z" />
<glyph unicode="&#x2000;" horiz-adv-x="834" />
<glyph unicode="&#x2001;" horiz-adv-x="1669" />
<glyph unicode="&#x2002;" horiz-adv-x="834" />
<glyph unicode="&#x2003;" horiz-adv-x="1669" />
<glyph unicode="&#x2004;" horiz-adv-x="556" />
<glyph unicode="&#x2005;" horiz-adv-x="417" />
<glyph unicode="&#x2006;" horiz-adv-x="278" />
<glyph unicode="&#x2007;" horiz-adv-x="278" />
<glyph unicode="&#x2008;" horiz-adv-x="208" />
<glyph unicode="&#x2009;" horiz-adv-x="333" />
<glyph unicode="&#x200a;" horiz-adv-x="92" />
<glyph unicode="&#x2010;" d="M152 535v40h579v-40h-579z" />
<glyph unicode="&#x2011;" d="M152 535v40h579v-40h-579z" />
<glyph unicode="&#x2012;" d="M152 535v40h579v-40h-579z" />
<glyph unicode="&#x2013;" horiz-adv-x="1155" d="M166 535v40h825v-40h-825z" />
<glyph unicode="&#x2014;" horiz-adv-x="1845" d="M166 535v40h1513v-40h-1513z" />
<glyph unicode="&#x2018;" horiz-adv-x="268" d="M131 1294v101q0 14 4 24q8 23 27 35q20 8 37 8v-41q-8 0 -17 -4l-6 -6q-4 -6 -4 -16v-101h-41z" />
<glyph unicode="&#x2019;" horiz-adv-x="262" d="M90 1284v41q8 0 16 4l7 6q4 6 4 17v100h41v-100q0 -14 -4 -25q-8 -23 -27 -35q-21 -8 -37 -8z" />
<glyph unicode="&#x201c;" horiz-adv-x="471" d="M154 1294v101q0 14 4 24q8 23 26 35q20 8 37 8v-41q-8 0 -16 -4l-6 -6q-4 -6 -4 -16v-101h-41zM276 1294v101q0 14 5 24q8 23 26 35q20 8 37 8v-41q-8 0 -16 -4l-6 -6q-4 -6 -5 -16v-101h-41z" />
<glyph unicode="&#x201d;" horiz-adv-x="468" d="M137 1284v41q8 0 17 4l6 6q4 6 4 17v100h41v-100q0 -14 -4 -25q-8 -23 -27 -35q-21 -8 -37 -8zM260 1284v41q8 0 16 4l7 6q4 6 4 17v100h41v-100q0 -14 -4 -25q-8 -23 -27 -35q-21 -8 -37 -8z" />
<glyph unicode="&#x2022;" horiz-adv-x="815" d="M113 784q0 121 87 208t208 87q123 0 208.5 -87t85.5 -208q0 -123 -86 -209t-208 -86q-121 0 -208 86t-87 209z" />
<glyph unicode="&#x2026;" horiz-adv-x="759" d="M166 0v131h41v-131h-41zM360 0v131h41v-131h-41zM555 0v131h41v-131h-41z" />
<glyph unicode="&#x202f;" horiz-adv-x="333" />
<glyph unicode="&#x205f;" horiz-adv-x="417" />
<glyph unicode="&#x20ac;" horiz-adv-x="1619" d="M57 596l21 41h194q-6 43 -6 88q0 37 2 55h-129l21 41h112q33 264 215.5 452.5t440.5 188.5q395 0 555 -317l-39 -12q-156 289 -516 288q-250 0 -417 -177t-198 -423h836l-21 -41h-819q-2 -18 -2 -55q0 -45 6 -88h754l-20 -41h-728q43 -238 222.5 -402.5t410.5 -164.5 q143 0 311.5 91t215.5 216l39 -10q-37 -100 -134.5 -180t-211 -119t-220.5 -39q-256 0 -442 179t-231 429h-222z" />
<glyph unicode="&#x2122;" horiz-adv-x="1300" d="M94 1417v41h430v-41h-194v-530h-41v530h-195zM618 887v567h44l215 -428l215 428h45v-567h-41v489l-201 -403h-35l-201 403v-489h-41z" />
<glyph unicode="&#xe000;" horiz-adv-x="1065" d="M0 0v1065h1065v-1065h-1065z" />
<glyph unicode="&#xfb01;" horiz-adv-x="956" d="M31 897v41h153v168q0 70 17.5 137.5t53.5 131t103.5 102.5t157.5 39q66 0 127.5 -16.5t90 -33t28.5 -20.5l-33 -25q-20 20 -79.5 37t-133.5 17q-145 0 -218 -112t-73 -257v-168h502v-938h-41v897h-461v-897h-41v897h-153z" />
<glyph unicode="&#xfb02;" horiz-adv-x="1069" d="M84 897v41h154v168q0 182 75.5 296t235.5 114q137 0 216 -74t79 -185v-1099q0 -49 33.5 -89t89.5 -40q16 0 33.5 2t33 4t28.5 5t21 5l9 2l18 -39q-2 -2 -21.5 -6t-55.5 -8t-68 -4q-74 0 -118 49t-44 119v1097q0 90 -63.5 155t-190.5 65q-135 0 -202.5 -111t-67.5 -258 v-168h256v-41h-256v-897h-41v897h-154z" />
<glyph unicode="&#xfb03;" horiz-adv-x="1646" d="M41 897v41h154v168q0 102 22.5 189t87 154t160.5 67q92 0 158 -33q47 -25 47 -37l-33 -25q-55 53 -172 54q-70 0 -118 -38t-70.5 -98.5t-31.5 -117t-9 -115.5v-168h317v-41h-317v-897h-41v897h-154zM731 897v41h154v168q0 102 22.5 189t87 154t160.5 67q92 0 158 -33 q47 -25 47 -37l-33 -25q-55 53 -172 54q-70 0 -118 -38t-70.5 -98.5t-31.5 -117t-9 -115.5v-168h317v-41h-317v-897h-41v897h-154zM1503 0v1059h41v-1059h-41zM1503 1337v131h41v-131h-41z" />
<glyph unicode="&#xfb04;" horiz-adv-x="1556" d="M53 897v41h154v127q0 160 81 264.5t230 104.5q115 0 187 -52q80 133 247 134q137 0 216 -74t79 -185v-1099q0 -49 34 -89t89 -40q16 0 33.5 2t33 4t29 5t21.5 5l8 2l18 -39q-2 -2 -21 -6t-55 -8t-69 -4q-74 0 -118 49t-44 119v1097q0 90 -63.5 155t-190.5 65 q-135 0 -202.5 -111t-67.5 -258v-168h256v-41h-256v-897h-41v897h-393v-897h-41v897h-154zM248 938h393v168q0 145 43 240q-57 47 -166 47q-135 0 -202.5 -98.5t-67.5 -229.5v-127z" />
</font>
</defs></svg> 